SOURCE_ID_NEURON,VALUE_FLOAT,TIMESTAMP,PLANT,BLOCK_NUMBER,ACB_PANEL
GHANI_531C/BLK/BLK08/RHS_LT_PANEL/MFM_LT_PANEL/Y_B_PHASE_VOLTAGE,514.33,2021-10-01T00:03:04.731Z,GHANI_531C,BLK08,RHS_LT_PANEL
GHANI_531C/BLK/BLK08/RHS_LT_PANEL/MFM_LT_PANEL/B_N_VOLTAGE,296.27,2021-10-01T00:03:04.731Z,GHANI_531C,BLK08,RHS_LT_PANEL
GHANI_531C/BLK/BLK08/RHS_LT_PANEL/MFM_LT_PANEL/Y_N_VOLTAGE,300.1,2021-10-01T00:03:04.731Z,GHANI_531C,BLK08,RHS_LT_PANEL
GHANI_531C/BLK/BLK08/LHS_LT_PANEL/MFM_LT_PANEL/R_N_VOLTAGE,299.99,2021-10-01T00:03:04.730Z,GHANI_531C,BLK08,LHS_LT_PANEL
GHANI_531C/BLK/BLK08/LHS_LT_PANEL/MFM_LT_PANEL/Y_N_VOLTAGE,300.48,2021-10-01T00:03:04.731Z,GHANI_531C,BLK08,LHS_LT_PANEL
GHANI_531C/BLK/BLK08/RHS_LT_PANEL/MFM_LT_PANEL/R_N_VOLTAGE,300.49,2021-10-01T00:03:04.731Z,GHANI_531C,BLK08,RHS_LT_PANEL
GHANI_531C/BLK/BLK08/LHS_LT_PANEL/MFM_LT_PANEL/B_N_VOLTAGE,296.0,2021-10-01T00:03:04.731Z,GHANI_531C,BLK08,LHS_LT_PANEL
GHANI_531C/BLK/BLK08/LHS_LT_PANEL/MFM_LT_PANEL/Y_B_PHASE_VOLTAGE,514.33,2021-10-01T00:03:04.731Z,GHANI_531C,BLK08,LHS_LT_PANEL
GHANI_531C/BLK/BLK08/RHS_LT_PANEL/MFM_LT_PANEL/R_Y_PHASE_VOLTAGE,521.48,2021-10-01T00:03:04.731Z,GHANI_531C,BLK08,RHS_LT_PANEL
GHANI_531C/BLK/BLK08/LHS_LT_PANEL/MFM_LT_PANEL/R_Y_PHASE_VOLTAGE,521.16,2021-10-01T00:03:04.731Z,GHANI_531C,BLK08,LHS_LT_PANEL
GHANI_531C/BLK/BLK08/RHS_LT_PANEL/MFM_LT_PANEL/B_R_PHASE_VOLTAGE,517.59,2021-10-01T00:03:04.731Z,GHANI_531C,BLK08,RHS_LT_PANEL
GHANI_531C/BLK/BLK08/LHS_LT_PANEL/MFM_LT_PANEL/B_R_PHASE_VOLTAGE,517.27,2021-10-01T00:03:04.730Z,GHANI_531C,BLK08,LHS_LT_PANEL
GHANI_531C/BLK/BLK08/RHS_LT_PANEL/MFM_LT_PANEL/Y_B_PHASE_VOLTAGE,514.49,2021-10-01T00:04:04.675Z,GHANI_531C,BLK08,RHS_LT_PANEL
GHANI_531C/BLK/BLK08/RHS_LT_PANEL/MFM_LT_PANEL/B_N_VOLTAGE,296.5,2021-10-01T00:04:04.675Z,GHANI_531C,BLK08,RHS_LT_PANEL
GHANI_531C/BLK/BLK08/LHS_LT_PANEL/MFM_LT_PANEL/R_N_VOLTAGE,299.89,2021-10-01T00:04:04.675Z,GHANI_531C,BLK08,LHS_LT_PANEL
GHANI_531C/BLK/BLK08/LHS_LT_PANEL/MFM_LT_PANEL/Y_N_VOLTAGE,300.74,2021-10-01T00:04:04.675Z,GHANI_531C,BLK08,LHS_LT_PANEL
GHANI_531C/BLK/BLK08/RHS_LT_PANEL/MFM_LT_PANEL/R_N_VOLTAGE,300.73,2021-10-01T00:04:04.675Z,GHANI_531C,BLK08,RHS_LT_PANEL
GHANI_531C/BLK/BLK08/LHS_LT_PANEL/MFM_LT_PANEL/Y_B_PHASE_VOLTAGE,514.8,2021-10-01T00:04:04.675Z,GHANI_531C,BLK08,LHS_LT_PANEL
GHANI_531C/BLK/BLK08/LHS_LT_PANEL/MFM_LT_PANEL/R_Y_PHASE_VOLTAGE,521.5,2021-10-01T00:04:04.675Z,GHANI_531C,BLK08,LHS_LT_PANEL
GHANI_531C/BLK/BLK08/RHS_LT_PANEL/MFM_LT_PANEL/B_R_PHASE_VOLTAGE,518.03,2021-10-01T00:04:04.675Z,GHANI_531C,BLK08,RHS_LT_PANEL
GHANI_531C/BLK/BLK08/LHS_LT_PANEL/MFM_LT_PANEL/B_R_PHASE_VOLTAGE,517.44,2021-10-01T00:04:04.675Z,GHANI_531C,BLK08,LHS_LT_PANEL
GHANI_531C/BLK/BLK08/RHS_LT_PANEL/MFM_LT_PANEL/Y_B_PHASE_VOLTAGE,514.73,2021-10-01T00:05:04.772Z,GHANI_531C,BLK08,RHS_LT_PANEL
GHANI_531C/BLK/BLK08/RHS_LT_PANEL/MFM_LT_PANEL/B_N_VOLTAGE,296.39,2021-10-01T00:05:04.772Z,GHANI_531C,BLK08,RHS_LT_PANEL
GHANI_531C/BLK/BLK08/RHS_LT_PANEL/MFM_LT_PANEL/Y_N_VOLTAGE,300.31,2021-10-01T00:05:04.772Z,GHANI_531C,BLK08,RHS_LT_PANEL
GHANI_531C/BLK/BLK08/LHS_LT_PANEL/MFM_LT_PANEL/R_N_VOLTAGE,300.14,2021-10-01T00:05:04.772Z,GHANI_531C,BLK08,LHS_LT_PANEL
GHANI_531C/BLK/BLK08/LHS_LT_PANEL/MFM_LT_PANEL/Y_N_VOLTAGE,300.54,2021-10-01T00:05:04.772Z,GHANI_531C,BLK08,LHS_LT_PANEL
GHANI_531C/BLK/BLK08/LHS_LT_PANEL/MFM_LT_PANEL/B_N_VOLTAGE,296.31,2021-10-01T00:05:04.772Z,GHANI_531C,BLK08,LHS_LT_PANEL
GHANI_531C/BLK/BLK08/RHS_LT_PANEL/MFM_LT_PANEL/R_N_VOLTAGE,300.63,2021-10-01T00:05:04.772Z,GHANI_531C,BLK08,RHS_LT_PANEL
GHANI_531C/BLK/BLK08/RHS_LT_PANEL/MFM_LT_PANEL/R_Y_PHASE_VOLTAGE,521.81,2021-10-01T00:05:04.772Z,GHANI_531C,BLK08,RHS_LT_PANEL
GHANI_531C/BLK/BLK08/LHS_LT_PANEL/MFM_LT_PANEL/Y_B_PHASE_VOLTAGE,514.5,2021-10-01T00:05:04.772Z,GHANI_531C,BLK08,LHS_LT_PANEL
GHANI_531C/BLK/BLK08/RHS_LT_PANEL/MFM_LT_PANEL/B_R_PHASE_VOLTAGE,517.9,2021-10-01T00:05:04.772Z,GHANI_531C,BLK08,RHS_LT_PANEL
GHANI_531C/BLK/BLK08/RHS_LT_PANEL/MFM_LT_PANEL/Y_B_PHASE_VOLTAGE,514.52,2021-10-01T00:06:04.756Z,GHANI_531C,BLK08,RHS_LT_PANEL
GHANI_531C/BLK/BLK08/RHS_LT_PANEL/MFM_LT_PANEL/Y_N_VOLTAGE,300.2,2021-10-01T00:06:04.756Z,GHANI_531C,BLK08,RHS_LT_PANEL
GHANI_531C/BLK/BLK08/LHS_LT_PANEL/MFM_LT_PANEL/Y_B_PHASE_VOLTAGE,514.6,2021-10-01T00:06:04.757Z,GHANI_531C,BLK08,LHS_LT_PANEL
GHANI_531C/BLK/BLK08/LHS_LT_PANEL/MFM_LT_PANEL/R_Y_PHASE_VOLTAGE,521.27,2021-10-01T00:06:04.756Z,GHANI_531C,BLK08,LHS_LT_PANEL
GHANI_531C/BLK/BLK08/RHS_LT_PANEL/MFM_LT_PANEL/B_R_PHASE_VOLTAGE,518.04,2021-10-01T00:06:04.757Z,GHANI_531C,BLK08,RHS_LT_PANEL
GHANI_531C/BLK/BLK08/LHS_LT_PANEL/MFM_LT_PANEL/B_N_VOLTAGE,296.16,2021-10-01T00:07:04.757Z,GHANI_531C,BLK08,LHS_LT_PANEL
GHANI_531C/BLK/BLK08/RHS_LT_PANEL/MFM_LT_PANEL/R_Y_PHASE_VOLTAGE,521.67,2021-10-01T00:07:04.757Z,GHANI_531C,BLK08,RHS_LT_PANEL
GHANI_531C/BLK/BLK08/LHS_LT_PANEL/MFM_LT_PANEL/Y_B_PHASE_VOLTAGE,514.39,2021-10-01T00:07:04.757Z,GHANI_531C,BLK08,LHS_LT_PANEL
GHANI_531C/BLK/BLK08/LHS_LT_PANEL/MFM_LT_PANEL/R_Y_PHASE_VOLTAGE,521.39,2021-10-01T00:07:04.757Z,GHANI_531C,BLK08,LHS_LT_PANEL
GHANI_531C/BLK/BLK08/RHS_LT_PANEL/MFM_LT_PANEL/B_R_PHASE_VOLTAGE,517.72,2021-10-01T00:07:04.757Z,GHANI_531C,BLK08,RHS_LT_PANEL
GHANI_531C/BLK/BLK08/LHS_LT_PANEL/MFM_LT_PANEL/B_R_PHASE_VOLTAGE,517.32,2021-10-01T00:07:04.757Z,GHANI_531C,BLK08,LHS_LT_PANEL
