SOURCE_ID_NEURON,VALUE_FLOAT,TIMESTAMP,PLANT,BLOCK_NUMBER,ACB_PANEL
GHANI_531C/BLK/BLK08/ACB028/IN108/CABINET_TEMP,33.5,2021-10-01T00:04:04.675Z,GHANI_531C,BLK08,ACB028
GHANI_531C/BLK/BLK08/ACB028/IN113/CABINET_TEMP,32.7,2021-10-01T00:07:04.757Z,GHANI_531C,BLK08,ACB028
