SOURCE_ID_NEURON,VALUE_FLOAT,TIMESTAMP,PLANT,BLOCK_NUMBER,ACB_PANEL
GHANI_531C/BLK/BLK01/ACB002/IN008/CABINET_TEMP,33.2,2021-10-01T00:00:49.673Z,GHANI_531C,BLK01,ACB002
GHANI_531C/BLK/BLK01/ACB002/IN008/CABINET_TEMP,33.0,2021-10-01T00:01:49.717Z,GHANI_531C,BLK01,ACB002
