SOURCE_ID_NEURON,VALUE_FLOAT,TIMESTAMP,PLANT,BLOCK_NUMBER,ACB_PANEL
GHANI_531C/BLK/BLK06/ACB020/IN078/CABINET_TEMP,33.5,2021-10-01T00:05:04.772Z,GHANI_531C,BLK06,ACB020
GHANI_531C/BLK/BLK06/ACB020/IN078/CABINET_TEMP,33.7,2021-10-01T00:07:04.757Z,GHANI_531C,BLK06,ACB020
