SOURCE_ID_NEURON,VALUE_FLOAT,TIMESTAMP,PLANT,BLOCK_NUMBER,ACB_PANEL
GHANI_531C/BLK/BLK10/ACB022/IN092/CABINET_TEMP,31.4,2021-10-01T00:05:04.772Z,GHANI_531C,BLK10,ACB022
GHANI_531C/BLK/BLK10/ACB022/IN092/CABINET_TEMP,31.6,2021-10-01T00:06:04.756Z,GHANI_531C,BLK10,ACB022
GHANI_531C/BLK/BLK10/ACB022/IN092/CABINET_TEMP,31.4,2021-10-01T00:07:04.757Z,GHANI_531C,BLK10,ACB022
