SOURCE_ID_NEURON,VALUE_FLOAT,TIMESTAMP,PLANT,BLOCK_NUMBER,ACB_PANEL
GHANI_531C/BLK/BLK02/RHS_LT_PANEL/MFM_LT_PANEL/Y_B_PHASE_VOLTAGE,515.67,2021-09-30T23:59:49.708Z,GHANI_531C,BLK02,RHS_LT_PANEL
GHANI_531C/BLK/BLK02/RHS_LT_PANEL/MFM_LT_PANEL/R_Y_PHASE_VOLTAGE,514.98,2021-09-30T23:59:49.708Z,GHANI_531C,BLK02,RHS_LT_PANEL
GHANI_531C/BLK/BLK02/RHS_LT_PANEL/MFM_LT_PANEL/R_N_VOLTAGE,300.07,2021-09-30T23:59:49.708Z,GHANI_531C,BLK02,RHS_LT_PANEL
GHANI_531C/BLK/BLK02/RHS_LT_PANEL/MFM_LT_PANEL/B_R_PHASE_VOLTAGE,523.81,2021-09-30T23:59:49.708Z,GHANI_531C,BLK02,RHS_LT_PANEL
GHANI_531C/BLK/BLK02/RHS_LT_PANEL/MFM_LT_PANEL/B_N_VOLTAGE,300.26,2021-09-30T23:59:49.711Z,GHANI_531C,BLK02,RHS_LT_PANEL
GHANI_531C/BLK/BLK02/IDT_TRAFO/OTI,44.1,2021-09-30T23:59:49.710Z,GHANI_531C,BLK02,IDT_TRAFO
GHANI_531C/BLK/BLK02/RHS_LT_PANEL/MFM_LT_PANEL/Y_N_VOLTAGE,297.03,2021-09-30T23:59:49.711Z,GHANI_531C,BLK02,RHS_LT_PANEL
GHANI_531C/BLK/BLK02/RHS_LT_PANEL/MFM_LT_PANEL/Y_B_PHASE_VOLTAGE,515.96,2021-10-01T00:00:49.672Z,GHANI_531C,BLK02,RHS_LT_PANEL
GHANI_531C/BLK/BLK02/RHS_LT_PANEL/MFM_LT_PANEL/R_N_VOLTAGE,300.27,2021-10-01T00:00:49.672Z,GHANI_531C,BLK02,RHS_LT_PANEL
GHANI_531C/BLK/BLK02/RHS_LT_PANEL/MFM_LT_PANEL/B_R_PHASE_VOLTAGE,524.11,2021-10-01T00:00:49.672Z,GHANI_531C,BLK02,RHS_LT_PANEL
GHANI_531C/BLK/BLK02/VCB_PANEL/MFM_VCB_PANEL/R_N_VOLTAGE,19.95,2021-10-01T00:00:49.670Z,GHANI_531C,BLK02,VCB_PANEL
GHANI_531C/BLK/BLK02/RHS_LT_PANEL/MFM_LT_PANEL/B_N_VOLTAGE,300.48,2021-10-01T00:00:49.677Z,GHANI_531C,BLK02,RHS_LT_PANEL
GHANI_531C/BLK/BLK02/IDT_TRAFO/OTI,44.63,2021-10-01T00:00:49.673Z,GHANI_531C,BLK02,IDT_TRAFO
GHANI_531C/BLK/BLK02/RHS_LT_PANEL/MFM_LT_PANEL/B_R_PHASE_VOLTAGE,523.79,2021-10-01T00:01:49.719Z,GHANI_531C,BLK02,RHS_LT_PANEL
GHANI_531C/BLK/BLK02/RHS_LT_PANEL/MFM_LT_PANEL/Y_B_PHASE_VOLTAGE,515.79,2021-10-01T00:01:49.719Z,GHANI_531C,BLK02,RHS_LT_PANEL
GHANI_531C/BLK/BLK02/RHS_LT_PANEL/MFM_LT_PANEL/R_Y_PHASE_VOLTAGE,515.36,2021-10-01T00:01:49.714Z,GHANI_531C,BLK02,RHS_LT_PANEL
GHANI_531C/BLK/BLK02/RHS_LT_PANEL/MFM_LT_PANEL/B_N_VOLTAGE,300.33,2021-10-01T00:01:49.719Z,GHANI_531C,BLK02,RHS_LT_PANEL
GHANI_531C/BLK/BLK02/RHS_LT_PANEL/MFM_LT_PANEL/Y_N_VOLTAGE,297.25,2021-10-01T00:01:49.716Z,GHANI_531C,BLK02,RHS_LT_PANEL
GHANI_531C/BLK/BLK02/RHS_LT_PANEL/MFM_LT_PANEL/R_N_VOLTAGE,300.11,2021-10-01T00:01:49.719Z,GHANI_531C,BLK02,RHS_LT_PANEL
GHANI_531C/BLK/BLK02/RHS_LT_PANEL/MFM_LT_PANEL/B_R_PHASE_VOLTAGE,523.96,2021-10-01T00:02:49.710Z,GHANI_531C,BLK02,RHS_LT_PANEL
GHANI_531C/BLK/BLK02/RHS_LT_PANEL/MFM_LT_PANEL/Y_B_PHASE_VOLTAGE,515.95,2021-10-01T00:02:49.711Z,GHANI_531C,BLK02,RHS_LT_PANEL
GHANI_531C/BLK/BLK02/RHS_LT_PANEL/MFM_LT_PANEL/R_Y_PHASE_VOLTAGE,515.19,2021-10-01T00:02:49.709Z,GHANI_531C,BLK02,RHS_LT_PANEL
GHANI_531C/BLK/BLK02/RHS_LT_PANEL/MFM_LT_PANEL/B_N_VOLTAGE,300.44,2021-10-01T00:02:49.710Z,GHANI_531C,BLK02,RHS_LT_PANEL
GHANI_531C/BLK/BLK02/RHS_LT_PANEL/MFM_LT_PANEL/Y_B_PHASE_VOLTAGE,515.81,2021-10-01T00:03:49.695Z,GHANI_531C,BLK02,RHS_LT_PANEL
GHANI_531C/BLK/BLK02/RHS_LT_PANEL/MFM_LT_PANEL/R_Y_PHASE_VOLTAGE,514.94,2021-10-01T00:03:49.694Z,GHANI_531C,BLK02,RHS_LT_PANEL
GHANI_531C/BLK/BLK02/IDT_TRAFO/OTI,44.28,2021-10-01T00:03:49.694Z,GHANI_531C,BLK02,IDT_TRAFO
GHANI_531C/BLK/BLK02/RHS_LT_PANEL/MFM_LT_PANEL/Y_N_VOLTAGE,297.07,2021-10-01T00:03:49.697Z,GHANI_531C,BLK02,RHS_LT_PANEL
