SOURCE_ID_NEURON,VALUE_FLOAT,TIMESTAMP,PLANT,BLOCK_NUMBER,ACB_PANEL
GHANI_531C/BLK/BLK02/ACB022/IN083/CABINET_TEMP,34.0,2021-09-30T23:59:49.706Z,GHANI_531C,BLK02,ACB022
GHANI_531C/BLK/BLK02/ACB022/IN083/CABINET_TEMP,33.8,2021-10-01T00:00:49.672Z,GHANI_531C,BLK02,ACB022
GHANI_531C/BLK/BLK02/ACB022/IN084/CABINET_TEMP,32.9,2021-10-01T00:01:49.718Z,GHANI_531C,BLK02,ACB022
GHANI_531C/BLK/BLK02/ACB022/IN084/CABINET_TEMP,33.1,2021-10-01T00:02:49.712Z,GHANI_531C,BLK02,ACB022
