SOURCE_ID_NEURON,VALUE_FLOAT,TIMESTAMP,PLANT,BLOCK_NUMBER,ACB_PANEL
GHANI_531C/BLK/BLK08/ACB022/IN084/CABINET_TEMP,33.1,2021-10-01T00:05:04.772Z,GHANI_531C,BLK08,ACB022
GHANI_531C/BLK/BLK08/ACB022/IN085/CABINET_TEMP,32.6,2021-10-01T00:06:04.757Z,GHANI_531C,BLK08,ACB022
GHANI_531C/BLK/BLK08/ACB022/IN087/CABINET_TEMP,33.0,2021-10-01T00:06:04.757Z,GHANI_531C,BLK08,ACB022
