SOURCE_ID_NEURON,VALUE_FLOAT,TIMESTAMP,PLANT,BLOCK_NUMBER,ACB_PANEL
GHANI_531C/BLK/BLK01/ACB023/IN089/CABINET_TEMP,32.9,2021-09-30T23:59:49.711Z,GHANI_531C,BLK01,ACB023
GHANI_531C/BLK/BLK01/ACB023/IN090/CABINET_TEMP,34.0,2021-10-01T00:02:49.709Z,GHANI_531C,BLK01,ACB023
GHANI_531C/BLK/BLK01/ACB023/IN089/CABINET_TEMP,33.1,2021-10-01T00:02:49.709Z,GHANI_531C,BLK01,ACB023
GHANI_531C/BLK/BLK01/ACB023/IN089/CABINET_TEMP,32.9,2021-10-01T00:03:49.696Z,GHANI_531C,BLK01,ACB023
