SOURCE_ID_NEURON,VALUE_FLOAT,TIMESTAMP,PLANT,BLOCK_NUMBER,ACB_PANEL
GHANI_531C/BLK/BLK04/ACB022/IN092/CABINET_TEMP,33.4,2021-09-30T23:59:49.706Z,GHANI_531C,BLK04,ACB022
GHANI_531C/BLK/BLK04/ACB022/IN092/CABINET_TEMP,33.6,2021-10-01T00:02:49.710Z,GHANI_531C,BLK04,ACB022
GHANI_531C/BLK/BLK04/ACB022/IN092/CABINET_TEMP,33.4,2021-10-01T00:03:49.695Z,GHANI_531C,BLK04,ACB022
