SOURCE_ID_NEURON,VALUE_FLOAT,TIMESTAMP,PLANT,BLOCK_NUMBER,ACB_PANEL
GHANI_531C/BLK/BLK02/ACB024/IN092/CABINET_TEMP,33.8,2021-09-30T23:59:49.711Z,GHANI_531C,BLK02,ACB024
GHANI_531C/BLK/BLK02/ACB024/IN092/CABINET_TEMP,33.6,2021-10-01T00:00:49.679Z,GHANI_531C,BLK02,ACB024
GHANI_531C/BLK/BLK02/ACB024/IN092/CABINET_TEMP,33.8,2021-10-01T00:02:49.708Z,GHANI_531C,BLK02,ACB024
GHANI_531C/BLK/BLK02/ACB024/IN094/CABINET_TEMP,32.8,2021-10-01T00:03:49.694Z,GHANI_531C,BLK02,ACB024
