SOURCE_ID_NEURON,VALUE_FLOAT,TIMESTAMP,PLANT,BLOCK_NUMBER,ACB_PANEL
GHANI_531C/BLK/BLK02/ACB011/IN044/CABINET_TEMP,32.7,2021-10-01T00:00:49.670Z,GHANI_531C,BLK02,ACB011
GHANI_531C/BLK/BLK02/ACB011/IN044/CABINET_TEMP,32.9,2021-10-01T00:01:49.715Z,GHANI_531C,BLK02,ACB011
GHANI_531C/BLK/BLK02/ACB011/IN041/CABINET_TEMP,33.4,2021-10-01T00:02:49.709Z,GHANI_531C,BLK02,ACB011
GHANI_531C/BLK/BLK02/ACB011/IN044/CABINET_TEMP,33.0,2021-10-01T00:02:49.710Z,GHANI_531C,BLK02,ACB011
GHANI_531C/BLK/BLK02/ACB011/IN044/CABINET_TEMP,32.7,2021-10-01T00:03:49.697Z,GHANI_531C,BLK02,ACB011
