SOURCE_ID_NEURON,VALUE_FLOAT,TIMESTAMP,PLANT,BLOCK_NUMBER,ACB_PANEL
GHANI_531C/BLK/BLK08/ACB019/IN072/CABINET_TEMP,33.6,2021-10-01T00:04:04.675Z,GHANI_531C,BLK08,ACB019
GHANI_531C/BLK/BLK08/ACB019/IN070/CABINET_TEMP,33.3,2021-10-01T00:07:04.757Z,GHANI_531C,BLK08,ACB019
