SOURCE_ID_NEURON,VALUE_FLOAT,TIMESTAMP,PLANT,BLOCK_NUMBER,ACB_PANEL
GHANI_531C/BLK/BLK10/ACB028/IN109/CABINET_TEMP,31.8,2021-10-01T00:03:04.731Z,GHANI_531C,BLK10,ACB028
GHANI_531C/BLK/BLK10/ACB028/IN109/CABINET_TEMP,31.6,2021-10-01T00:04:04.675Z,GHANI_531C,BLK10,ACB028
