SOURCE_ID_NEURON,VALUE_FLOAT,TIMESTAMP,PLANT,BLOCK_NUMBER,ACB_PANEL
GHANI_531C/BLK/BLK03/ACB006/IN026/CABINET_TEMP,33.0,2021-10-01T00:00:49.675Z,GHANI_531C,BLK03,ACB006
GHANI_531C/BLK/BLK03/ACB006/IN026/CABINET_TEMP,33.2,2021-10-01T00:02:49.711Z,GHANI_531C,BLK03,ACB006
GHANI_531C/BLK/BLK03/ACB006/IN024/CABINET_TEMP,34.5,2021-10-01T00:02:49.711Z,GHANI_531C,BLK03,ACB006
