SOURCE_ID_NEURON,VALUE_FLOAT,TIMESTAMP,PLANT,BLOCK_NUMBER,ACB_PANEL
GHANI_531C/BLK/BLK10/ACB001/IN001/CABINET_TEMP,38.8,2021-10-01T00:05:04.772Z,GHANI_531C,BLK10,ACB001
GHANI_531C/BLK/BLK10/ACB001/IN001/CABINET_TEMP,38.6,2021-10-01T00:06:04.757Z,GHANI_531C,BLK10,ACB001
